{
  "project_info": {
    "project_number": "297198380463",
    "firebase_url": "https://feedbackapp-152c1.firebaseio.com",
    "project_id": "feedbackapp-152c1",
    "storage_bucket": "feedbackapp-152c1.appspot.com"
  },
  "client": [
    {
      "client_info": {
        "mobilesdk_app_id": "1:297198380463:android:7e6301eb20e8d062",
        "android_client_info": {
          "package_name": "com.shitij.goyal.slidebuttonproject"
        }
      },
      "oauth_client": [
        {
          "client_id": "297198380463-mhqd7gknnt97tu9sk49fpc0rjk7ira6e.apps.googleusercontent.com",
          "client_type": 1,
          "android_info": {
            "package_name": "com.shitij.goyal.slidebuttonproject",
            "certificate_hash": "CAE71D025800F8B0D8627526C8FDEB5656C4D493"
          }
        },
        {
          "client_id": "297198380463-tioqs8g4t48ogfaakbrjvbsfimqfsfe7.apps.googleusercontent.com",
          "client_type": 3
        }
      ],
      "api_key": [
        {
          "current_key": "AIzaSyA5hrrix2sEHrszz3YTFXpdi8hj9e41NbU"
        }
      ],
      "services": {
        "analytics_service": {
          "status": 1
        },
        "appinvite_service": {
          "status": 2,
          "other_platform_oauth_client": [
            {
              "client_id": "297198380463-tioqs8g4t48ogfaakbrjvbsfimqfsfe7.apps.googleusercontent.com",
              "client_type": 3
            }
          ]
        },
        "ads_service": {
          "status": 2
        }
      }
    }
  ],
  "configuration_version": "1"
}